R Dependency Test – Yonghun’s Computational Geo-Blog
…
Tidyverse

read_csv("./data/SVI_2000_US.csv")

Rows: 65081 Columns: 82
── Column specification ────────────────────────────────────────────────────────
Delimiter: ","
chr  (9): STATE_FIPS, CNTY_FIPS, STCOFIPS, TRACT, FIPS, STATE_NAME, STATE_AB...
dbl (73): G1V1R, G1V2R, G1V3R, G1V4R, G2V1R, G2V2R, G2V3R, G2V4R, G3V1R, G3V...

ℹ Use `spec()` to retrieve the full column specification for this data.
ℹ Specify the column types or set `show_col_types = FALSE` to quiet this message.

# A tibble: 65,081 × 82
   STATE_FIPS CNTY_FIPS STCOFIPS TRACT FIPS  STATE_NAME STATE_ABBR COUNTY  G1V1R
   <chr>      <chr>     <chr>    <chr> <chr> <chr>      <chr>      <chr>   <dbl>
 1 01         001       01001    0201… 0100… Alabama    AL         Autau… 0.127 
 2 01         001       01001    0202… 0100… Alabama    AL         Autau… 0.227 
 3 01         001       01001    0203… 0100… Alabama    AL         Autau… 0.0766
 4 01         001       01001    0204… 0100… Alabama    AL         Autau… 0.0454
 5 01         001       01001    0205… 0100… Alabama    AL         Autau… 0.0367
 6 01         001       01001    0206… 0100… Alabama    AL         Autau… 0.152 
 7 01         001       01001    0207… 0100… Alabama    AL         Autau… 0.11  
 8 01         001       01001    0208… 0100… Alabama    AL         Autau… 0.0844
 9 01         001       01001    0209… 0100… Alabama    AL         Autau… 0.138 
10 01         001       01001    0210… 0100… Alabama    AL         Autau… 0.176 
# ℹ 65,071 more rows
# ℹ 73 more variables: G1V2R <dbl>, G1V3R <dbl>, G1V4R <dbl>, G2V1R <dbl>,
#   G2V2R <dbl>, G2V3R <dbl>, G2V4R <dbl>, G3V1R <dbl>, G3V2R <dbl>,
#   G4V1R <dbl>, G4V2R <dbl>, G4V3R <dbl>, G4V4R <dbl>, G4V5R <dbl>,
#   USG1V1P <dbl>, USG1V2P <dbl>, USG1V3P <dbl>, USG1V4P <dbl>, USG1TP <dbl>,
#   USG2V1P <dbl>, USG2V2P <dbl>, USG2V3P <dbl>, USG2V4P <dbl>, USG2TP <dbl>,
#   USG3V1P <dbl>, USG3V2P <dbl>, USG3TP <dbl>, USG4V1P <dbl>, USG4V2P <dbl>, …
…
